%YAML 1.1
%TAG !u! tag:unity3d.com,2011:
--- !u!1045 &1
EditorBuildSettings:
  m_ObjectHideFlags: 0
  serializedVersion: 2
  m_Scenes:
  - enabled: 1
    path: Assets/Scenes/MainMenu.unity
    guid: 3c84c1ce0d816a545b74415d678fd00d
  - enabled: 1
    path: Assets/Scenes/SSE.unity
    guid: 00000000000000000000000000000000
